{"photos":{"page":1,"pages":92293,"perpage":2,"total":"184585","photo":[{"id":"49402615537","owner":"8740272@N04","secret":"e186b7922e","server":"65535","farm":66,"title":"Having Fun In a Warm Winter (to be continued)","ispublic":1,"isfriend":0,"isfamily":0},{"id":"49401885523","owner":"143537090@N02","secret":"53f5fa566b","server":"65535","farm":66,"title":"Mackerel Tabby Cat","ispublic":1,"isfriend":0,"isfamily":0}]},"stat":"ok"}